<?xml version="1.0" encoding="UTF-8" standalone="no"?>
<!-- Created with Inkscape (http://www.inkscape.org/) -->

<svg
   width="200mm"
   height="200mm"
   viewBox="0 0 200 200"
   version="1.1"
   id="svg5"
   inkscape:version="1.1.2 (0a00cf5, 2022-02-04)"
   sodipodi:docname="hamburger-menu.svg"
   xmlns:inkscape="http://www.inkscape.org/namespaces/inkscape"
   xmlns:sodipodi="http://sodipodi.sourceforge.net/DTD/sodipodi-0.dtd"
   xmlns="http://www.w3.org/2000/svg"
   xmlns:svg="http://www.w3.org/2000/svg">
  <sodipodi:namedview
     id="namedview7"
     pagecolor="#002661"
     bordercolor="#000000"
     borderopacity="1"
     inkscape:pageshadow="0"
     inkscape:pageopacity="0"
     inkscape:pagecheckerboard="0"
     inkscape:document-units="mm"
     showgrid="false"
     width="200mm"
     inkscape:zoom="0.64"
     inkscape:cx="344.53125"
     inkscape:cy="367.1875"
     inkscape:window-width="1366"
     inkscape:window-height="711"
     inkscape:window-x="0"
     inkscape:window-y="345"
     inkscape:window-maximized="1"
     inkscape:current-layer="layer1" />
  <defs
     id="defs2" />
  <g
     inkscape:label="Layer 1"
     inkscape:groupmode="layer"
     id="layer1">
    <path
       style="fill:#00a185;fill-opacity:1;stroke:#000000;stroke-width:0.264583px;stroke-linecap:butt;stroke-linejoin:miter;stroke-opacity:1"
       d="m 30,40.132291 h 140 c 16.0072,11.301949 0,20 0,20 H 30 c 0,0 -14.530578,-9.184662 0,-20 z"
       id="path989"
       sodipodi:nodetypes="ccccc" />
    <path
       style="fill:#00a185;fill-opacity:1;stroke:#000000;stroke-width:0.264583px;stroke-linecap:butt;stroke-linejoin:miter;stroke-opacity:1"
       d="M 29.999828,140.13229 H 169.99982 c 16.0072,11.30195 0,20 0,20 H 29.999828 c 0,0 -14.530578,-9.18466 0,-20 z"
       id="path989-3"
       sodipodi:nodetypes="ccccc" />
    <path
       style="fill:#00a185;fill-opacity:1;stroke:#000000;stroke-width:0.264583px;stroke-linecap:butt;stroke-linejoin:miter;stroke-opacity:1"
       d="M 29.999828,90.132291 H 169.99982 c 16.0072,11.301949 0,19.999999 0,19.999999 H 29.999828 c 0,0 -14.530578,-9.18466 0,-19.999999 z"
       id="path989-3-6"
       sodipodi:nodetypes="ccccc" />
    <rect
       style="fill:#00a185;fill-opacity:1;stroke:#000000;stroke-width:0;stroke-opacity:0"
       id="rect1374"
       width="0"
       height="0"
       x="130.89476"
       y="108.25655" />
  </g>
</svg>
